{
  "__type__": "cc.AnimationClip",
  "_name": "anim_save",
  "_objFlags": 0,
  "_native": "",
  "_duration": 5.983333333333333,
  "sample": 60,
  "speed": 1,
  "wrapMode": "2",
  "curveData": {
    "props": {
      "angle": [
        {
          "frame": 0,
          "value": 0
        },
        {
          "frame": 2,
          "value": 15
        },
        {
          "frame": 3.9833333333333334,
          "value": -15
        },
        {
          "frame": 5.983333333333333,
          "value": 0
        }
      ]
    }
  },
  "events": []
}