{
  "collision-matrix": [
    [
      true
    ]
  ],
  "design-resolution-height": 640,
  "design-resolution-width": 960,
  "excluded-modules": [
    "LabelOutline",
    "ParticleSystem",
    "TiledMap",
    "Spine Skeleton",
    "DragonBones",
    "RichText",
    "MotionStreak",
    "Toggle",
    "PageView",
    "PageViewIndicator",
    "Slider",
    "EditBox",
    "VideoPlayer",
    "WebView",
    "Collider",
    "Physics",
    "3D",
    "Mesh"
  ],
  "fit-height": true,
  "fit-width": false,
  "group-list": [
    "default"
  ],
  "simulator-orientation": false,
  "simulator-resolution": {
    "height": 640,
    "width": 960
  },
  "use-customize-simulator": false,
  "use-project-simulator-setting": false,
  "start-scene": "current",
  "cocos-analytics": {
    "enable": false,
    "appID": "13798",
    "appSecret": "959b3ac0037d0f3c2fdce94f8421a9b2"
  }
}