{
    "copyFilesFilter": [
        "../bin/**/*.*"
    ],
    "openDataZone": false,
    "compressJson": false,
    "compressJsonFilter": [
        "$basePath/**/*.{json,atlas}"
    ],
    "compressJsonNoteList": [
        ""
    ],
    "compressImage": false,
    "compressImageFilter": [
        "$basePath/**/*.{png,jpg}"
    ],
    "compressImageNoteList": [
        ""
    ],
    "compressJs": false,
    "compressJsFilter": [
        "$basePath/**/*.js"
    ],
    "compressJsNoteList": [
        ""
    ],
    "version": false,
    "versionFilter": [
        "$basePath/**/*.*",
        "!$basePath/*.html",
        "!$basePath/{version.json,game.js,game.json,project.config.json,weapp-adapter.js,project.swan.json,swan-game-adapter.js,main.js,gameConfig.json,my-adapter.js}",
        "!$basePath/layaforqq/**/*.*"
    ],
    "versionNoteList": [
        "",
        "",
        "",
        ""
    ],
    "exclude": false,
    "excludeFilter": [
        "!$basePath/res/**/*.*"
    ],
    "vexcludeNoteList": [
        ""
    ],
    "packfile": false,
    "keepPlatformFile": false,
    "packfileFilter": [
        ""
    ],
    "packfileFullValue": [
        "$basePath/**/*.*"
    ],
    "packfileTargetValue": "",
    "packfileNoteList": [
        ""
    ],
    "clearReleaseDir": true,
    "compile": true,
    "forceCompile": false,
    "onlyIndexJS": true,
    "es6toes5": false,
    "projectType": "ts",
    "pubTime": 1612332393838,
    "vivoInfo": {
        "name": "七个字",
        "projName": "quickgame",
        "package": "com.szydhw.fkcc.vivominigame",
        "icon": "E:\\work\\VIVO\\PimMyCar\\sdk\\vv\\icon.png",
        "versionName": "1.0.0",
        "versionCode": 1,
        "minPlatformVersion": 1063,
        "orientation": "portrait",
        "logLevel": "log",
        "oppoDebug": false,
        "useReleaseSign": false,
        "subpack": false
    },
    "vivoSign": {
        "generateSign": false,
        "countryName": "",
        "provinceName": "",
        "localityName": "",
        "orgName": "",
        "orgUnitName": "",
        "commonName": "",
        "emailAddr": ""
    },
    "vivoSubpack": []
}