{
  "__type__": "cc.AnimationClip",
  "_name": "golds_anim",
  "_objFlags": 0,
  "_native": "",
  "_duration": 0.9333333333333333,
  "sample": 60,
  "speed": 1,
  "wrapMode": 1,
  "curveData": {
    "paths": {
      "gold_1": {
        "props": {
          "position": [
            {
              "frame": 0,
              "value": [
                0,
                0
              ]
            },
            {
              "frame": 0.08333333333333333,
              "value": [
                -61,
                -284
              ]
            },
            {
              "frame": 0.25,
              "value": [
                -94,
                -247
              ]
            },
            {
              "frame": 0.3333333333333333,
              "value": [
                -238,
                -134
              ]
            },
            {
              "frame": 0.4166666666666667,
              "value": [
                -195,
                271
              ]
            },
            {
              "frame": 0.5,
              "value": [
                -100,
                549
              ]
            },
            {
              "frame": 0.5833333333333334,
              "value": [
                -30,
                762
              ]
            },
            {
              "frame": 0.6666666666666666,
              "value": [
                -30,
                949
              ]
            }
          ]
        }
      },
      "gold_2": {
        "props": {
          "position": [
            {
              "frame": 0,
              "value": [
                0,
                0
              ]
            },
            {
              "frame": 0.08333333333333333,
              "value": [
                -226,
                -213
              ]
            },
            {
              "frame": 0.25,
              "value": [
                -274,
                -169
              ]
            },
            {
              "frame": 0.3333333333333333,
              "value": [
                -270,
                53
              ]
            },
            {
              "frame": 0.4166666666666667,
              "value": [
                -130,
                463
              ]
            },
            {
              "frame": 0.5,
              "value": [
                -43,
                750
              ]
            },
            {
              "frame": 0.5833333333333334,
              "value": [
                -17,
                968
              ]
            }
          ]
        }
      },
      "gold_3": {
        "props": {
          "position": [
            {
              "frame": 0,
              "value": [
                0,
                0
              ]
            },
            {
              "frame": 0.08333333333333333,
              "value": [
                -304,
                -48
              ]
            },
            {
              "frame": 0.25,
              "value": [
                -287,
                69
              ]
            },
            {
              "frame": 0.3333333333333333,
              "value": [
                -226,
                239
              ]
            },
            {
              "frame": 0.4166666666666667,
              "value": [
                -48,
                669
              ]
            },
            {
              "frame": 0.5,
              "value": [
                -22,
                952
              ]
            }
          ]
        }
      },
      "gold_4": {
        "props": {
          "position": [
            {
              "frame": 0,
              "value": [
                0,
                0
              ]
            },
            {
              "frame": 0.08333333333333333,
              "value": [
                -274,
                161
              ]
            },
            {
              "frame": 0.25,
              "value": [
                -226,
                235
              ]
            },
            {
              "frame": 0.3333333333333333,
              "value": [
                -169,
                405
              ]
            },
            {
              "frame": 0.4166666666666667,
              "value": [
                -12,
                962
              ]
            }
          ]
        }
      },
      "gold_5": {
        "props": {
          "position": [
            {
              "frame": 0,
              "value": [
                0,
                0
              ]
            },
            {
              "frame": 0.08333333333333333,
              "value": [
                -105,
                287
              ]
            },
            {
              "frame": 0.25,
              "value": [
                -122,
                570
              ]
            },
            {
              "frame": 0.3333333333333333,
              "value": [
                -52,
                727
              ]
            },
            {
              "frame": 0.4166666666666667,
              "value": [
                -17,
                953
              ]
            }
          ]
        }
      },
      "gold_6": {
        "props": {
          "position": [
            {
              "frame": 0,
              "value": [
                0,
                0
              ]
            },
            {
              "frame": 0.08333333333333333,
              "value": [
                126,
                296
              ]
            },
            {
              "frame": 0.25,
              "value": [
                156,
                239
              ]
            },
            {
              "frame": 0.3333333333333333,
              "value": [
                282,
                152
              ]
            },
            {
              "frame": 0.4166666666666667,
              "value": [
                299,
                -132
              ]
            },
            {
              "frame": 0.5,
              "value": [
                86,
                -284
              ]
            },
            {
              "frame": 0.5833333333333334,
              "value": [
                -158,
                -254
              ]
            },
            {
              "frame": 0.6666666666666666,
              "value": [
                -297,
                -32
              ]
            },
            {
              "frame": 0.75,
              "value": [
                -210,
                216
              ]
            },
            {
              "frame": 0.8333333333333334,
              "value": [
                3,
                377
              ]
            },
            {
              "frame": 0.9166666666666666,
              "value": [
                203,
                773
              ]
            },
            {
              "frame": 0.9333333333333333,
              "value": [
                -18,
                953
              ]
            }
          ]
        }
      },
      "gold_7": {
        "props": {
          "position": [
            {
              "frame": 0,
              "value": [
                0,
                0
              ]
            },
            {
              "frame": 0.08333333333333333,
              "value": [
                292,
                187
              ]
            },
            {
              "frame": 0.25,
              "value": [
                296,
                113
              ]
            },
            {
              "frame": 0.3333333333333333,
              "value": [
                279,
                -44
              ]
            },
            {
              "frame": 0.4166666666666667,
              "value": [
                118,
                -262
              ]
            },
            {
              "frame": 0.5,
              "value": [
                -134,
                -258
              ]
            },
            {
              "frame": 0.5833333333333334,
              "value": [
                -278,
                -114
              ]
            },
            {
              "frame": 0.6666666666666666,
              "value": [
                -226,
                173
              ]
            },
            {
              "frame": 0.75,
              "value": [
                -56,
                334
              ]
            },
            {
              "frame": 0.8333333333333334,
              "value": [
                101,
                578
              ]
            },
            {
              "frame": 0.9166666666666666,
              "value": [
                258,
                817
              ]
            },
            {
              "frame": 0.9333333333333333,
              "value": [
                -25,
                961
              ]
            }
          ]
        }
      },
      "gold_8": {
        "props": {
          "position": [
            {
              "frame": 0,
              "value": [
                0,
                0
              ]
            },
            {
              "frame": 0.08333333333333333,
              "value": [
                348,
                -13
              ]
            },
            {
              "frame": 0.25,
              "value": [
                296,
                -61
              ]
            },
            {
              "frame": 0.3333333333333333,
              "value": [
                218,
                -192
              ]
            },
            {
              "frame": 0.4166666666666667,
              "value": [
                -87,
                -283
              ]
            },
            {
              "frame": 0.5,
              "value": [
                -282,
                -88
              ]
            },
            {
              "frame": 0.5833333333333334,
              "value": [
                -260,
                125
              ]
            },
            {
              "frame": 0.6666666666666666,
              "value": [
                -108,
                338
              ]
            },
            {
              "frame": 0.75,
              "value": [
                96,
                499
              ]
            },
            {
              "frame": 0.8333333333333334,
              "value": [
                209,
                799
              ]
            },
            {
              "frame": 0.9166666666666666,
              "value": [
                -22,
                951
              ]
            }
          ]
        }
      },
      "gold_9": {
        "props": {
          "position": [
            {
              "frame": 0,
              "value": [
                0,
                0
              ]
            },
            {
              "frame": 0.08333333333333333,
              "value": [
                274,
                -188
              ]
            },
            {
              "frame": 0.25,
              "value": [
                200,
                -218
              ]
            },
            {
              "frame": 0.3333333333333333,
              "value": [
                74,
                -253
              ]
            },
            {
              "frame": 0.4166666666666667,
              "value": [
                -240,
                -161
              ]
            },
            {
              "frame": 0.5,
              "value": [
                -262,
                122
              ]
            },
            {
              "frame": 0.5833333333333334,
              "value": [
                -188,
                357
              ]
            },
            {
              "frame": 0.6666666666666666,
              "value": [
                8,
                479
              ]
            },
            {
              "frame": 0.75,
              "value": [
                147,
                688
              ]
            },
            {
              "frame": 0.8333333333333334,
              "value": [
                -14,
                962
              ]
            }
          ]
        }
      },
      "gold_10": {
        "props": {
          "position": [
            {
              "frame": 0,
              "value": [
                0,
                0
              ]
            },
            {
              "frame": 0.08333333333333333,
              "value": [
                117,
                -292
              ]
            },
            {
              "frame": 0.25,
              "value": [
                60,
                -240
              ]
            },
            {
              "frame": 0.3333333333333333,
              "value": [
                -105,
                -240
              ]
            },
            {
              "frame": 0.4166666666666667,
              "value": [
                -283,
                60
              ]
            },
            {
              "frame": 0.5,
              "value": [
                -174,
                361
              ]
            },
            {
              "frame": 0.5833333333333334,
              "value": [
                -87,
                596
              ]
            },
            {
              "frame": 0.6666666666666666,
              "value": [
                70,
                670
              ]
            },
            {
              "frame": 0.75,
              "value": [
                -8,
                957
              ]
            }
          ]
        }
      }
    }
  },
  "events": []
}