{
  "__type__": "cc.AnimationClip",
  "_name": "anim_break_egg",
  "_objFlags": 0,
  "_native": "",
  "_duration": 0.1,
  "sample": 60,
  "speed": 1,
  "wrapMode": 1,
  "curveData": {
    "paths": {
      "sp_egg": {
        "props": {
          "angle": [
            {
              "frame": 0,
              "value": 0
            },
            {
              "frame": 0.05,
              "value": 0
            },
            {
              "frame": 0.08333333333333333,
              "value": 10
            },
            {
              "frame": 0.1,
              "value": 0
            }
          ]
        }
      },
      "sp_hammer": {
        "props": {
          "angle": [
            {
              "frame": 0,
              "value": 0
            },
            {
              "frame": 0.05,
              "value": 25
            },
            {
              "frame": 0.06666666666666667,
              "value": 16.666666666666668
            },
            {
              "frame": 0.1,
              "value": 0
            }
          ]
        }
      }
    }
  },
  "events": []
}